^C:\USERS\CAIYUJIN\DESKTOP\CPP\CPP_OTHERS\GRPC_EXAMPLE\CMAKEFILES\3.29.2\COMPILERIDCXX\DEBUG\CMAKECXXCOMPILERID.OBJ
C:\PROGRAM FILES\MICROSOFT VISUAL STUDIO\2022\PROFESSIONAL\VC\TOOLS\MSVC\14.36.32532\BIN\HOSTX64\X64\LINK.EXE
C:\PROGRAM FILES (X86)\WINDOWS KITS\10\LIB\10.0.22000.0\UM\X64\KERNEL32.LIB
C:\PROGRAM FILES (X86)\WINDOWS KITS\10\LIB\10.0.22000.0\UM\X64\USER32.LIB
C:\PROGRAM FILES (X86)\WINDOWS KITS\10\LIB\10.0.22000.0\UM\X64\GDI32.LIB
C:\PROGRAM FILES (X86)\WINDOWS KITS\10\LIB\10.0.22000.0\UM\X64\WINSPOOL.LIB
C:\PROGRAM FILES (X86)\WINDOWS KITS\10\LIB\10.0.22000.0\UM\X64\COMDLG32.LIB
C:\PROGRAM FILES (X86)\WINDOWS KITS\10\LIB\10.0.22000.0\UM\X64\ADVAPI32.LIB
C:\PROGRAM FILES (X86)\WINDOWS KITS\10\LIB\10.0.22000.0\UM\X64\SHELL32.LIB
C:\PROGRAM FILES (X86)\WINDOWS KITS\10\LIB\10.0.22000.0\UM\X64\OLE32.LIB
C:\PROGRAM FILES (X86)\WINDOWS KITS\10\LIB\10.0.22000.0\UM\X64\OLEAUT32.LIB
C:\PROGRAM FILES (X86)\WINDOWS KITS\10\LIB\10.0.22000.0\UM\X64\UUID.LIB
C:\PROGRAM FILES (X86)\WINDOWS KITS\10\LIB\10.0.22000.0\UM\X64\ODBC32.LIB
C:\PROGRAM FILES (X86)\WINDOWS KITS\10\LIB\10.0.22000.0\UM\X64\ODBCCP32.LIB
C:\USERS\CAIYUJIN\DESKTOP\VCPKGINSTALLER\VCPKG\INSTALLED\X64-WINDOWS\LIB\ABSEIL_DLL.LIB
C:\USERS\CAIYUJIN\DESKTOP\VCPKGINSTALLER\VCPKG\INSTALLED\X64-WINDOWS\LIB\ABSL_DECODE_RUST_PUNYCODE.LIB
C:\USERS\CAIYUJIN\DESKTOP\VCPKGINSTALLER\VCPKG\INSTALLED\X64-WINDOWS\LIB\ABSL_DEMANGLE_RUST.LIB
C:\USERS\CAIYUJIN\DESKTOP\VCPKGINSTALLER\VCPKG\INSTALLED\X64-WINDOWS\LIB\ABSL_FLAGS_COMMANDLINEFLAG.LIB
C:\USERS\CAIYUJIN\DESKTOP\VCPKGINSTALLER\VCPKG\INSTALLED\X64-WINDOWS\LIB\ABSL_FLAGS_COMMANDLINEFLAG_INTERNAL.LIB
C:\USERS\CAIYUJIN\DESKTOP\VCPKGINSTALLER\VCPKG\INSTALLED\X64-WINDOWS\LIB\ABSL_FLAGS_CONFIG.LIB
C:\USERS\CAIYUJIN\DESKTOP\VCPKGINSTALLER\VCPKG\INSTALLED\X64-WINDOWS\LIB\ABSL_FLAGS_INTERNAL.LIB
C:\USERS\CAIYUJIN\DESKTOP\VCPKGINSTALLER\VCPKG\INSTALLED\X64-WINDOWS\LIB\ABSL_FLAGS_MARSHALLING.LIB
C:\USERS\CAIYUJIN\DESKTOP\VCPKGINSTALLER\VCPKG\INSTALLED\X64-WINDOWS\LIB\ABSL_FLAGS_PARSE.LIB
C:\USERS\CAIYUJIN\DESKTOP\VCPKGINSTALLER\VCPKG\INSTALLED\X64-WINDOWS\LIB\ABSL_FLAGS_PRIVATE_HANDLE_ACCESSOR.LIB
C:\USERS\CAIYUJIN\DESKTOP\VCPKGINSTALLER\VCPKG\INSTALLED\X64-WINDOWS\LIB\ABSL_FLAGS_PROGRAM_NAME.LIB
C:\USERS\CAIYUJIN\DESKTOP\VCPKGINSTALLER\VCPKG\INSTALLED\X64-WINDOWS\LIB\ABSL_FLAGS_REFLECTION.LIB
C:\USERS\CAIYUJIN\DESKTOP\VCPKGINSTALLER\VCPKG\INSTALLED\X64-WINDOWS\LIB\ABSL_FLAGS_USAGE.LIB
C:\USERS\CAIYUJIN\DESKTOP\VCPKGINSTALLER\VCPKG\INSTALLED\X64-WINDOWS\LIB\ABSL_FLAGS_USAGE_INTERNAL.LIB
C:\USERS\CAIYUJIN\DESKTOP\VCPKGINSTALLER\VCPKG\INSTALLED\X64-WINDOWS\LIB\ABSL_LOG_FLAGS.LIB
C:\USERS\CAIYUJIN\DESKTOP\VCPKGINSTALLER\VCPKG\INSTALLED\X64-WINDOWS\LIB\ABSL_POISON.LIB
C:\USERS\CAIYUJIN\DESKTOP\VCPKGINSTALLER\VCPKG\INSTALLED\X64-WINDOWS\LIB\ABSL_UTF8_FOR_CODE_POINT.LIB
C:\USERS\CAIYUJIN\DESKTOP\VCPKGINSTALLER\VCPKG\INSTALLED\X64-WINDOWS\LIB\ADDRESS_SORTING.LIB
C:\USERS\CAIYUJIN\DESKTOP\VCPKGINSTALLER\VCPKG\INSTALLED\X64-WINDOWS\LIB\CARES.LIB
C:\USERS\CAIYUJIN\DESKTOP\VCPKGINSTALLER\VCPKG\INSTALLED\X64-WINDOWS\LIB\GPR.LIB
C:\USERS\CAIYUJIN\DESKTOP\VCPKGINSTALLER\VCPKG\INSTALLED\X64-WINDOWS\LIB\GRPC++.LIB
C:\USERS\CAIYUJIN\DESKTOP\VCPKGINSTALLER\VCPKG\INSTALLED\X64-WINDOWS\LIB\GRPC++_ALTS.LIB
C:\USERS\CAIYUJIN\DESKTOP\VCPKGINSTALLER\VCPKG\INSTALLED\X64-WINDOWS\LIB\GRPC++_ERROR_DETAILS.LIB
C:\USERS\CAIYUJIN\DESKTOP\VCPKGINSTALLER\VCPKG\INSTALLED\X64-WINDOWS\LIB\GRPC++_REFLECTION.LIB
C:\USERS\CAIYUJIN\DESKTOP\VCPKGINSTALLER\VCPKG\INSTALLED\X64-WINDOWS\LIB\GRPC++_UNSECURE.LIB
C:\USERS\CAIYUJIN\DESKTOP\VCPKGINSTALLER\VCPKG\INSTALLED\X64-WINDOWS\LIB\GRPC.LIB
C:\USERS\CAIYUJIN\DESKTOP\VCPKGINSTALLER\VCPKG\INSTALLED\X64-WINDOWS\LIB\GRPCPP_CHANNELZ.LIB
C:\USERS\CAIYUJIN\DESKTOP\VCPKGINSTALLER\VCPKG\INSTALLED\X64-WINDOWS\LIB\GRPC_AUTHORIZATION_PROVIDER.LIB
C:\USERS\CAIYUJIN\DESKTOP\VCPKGINSTALLER\VCPKG\INSTALLED\X64-WINDOWS\LIB\GRPC_PLUGIN_SUPPORT.LIB
C:\USERS\CAIYUJIN\DESKTOP\VCPKGINSTALLER\VCPKG\INSTALLED\X64-WINDOWS\LIB\GRPC_UNSECURE.LIB
C:\USERS\CAIYUJIN\DESKTOP\VCPKGINSTALLER\VCPKG\INSTALLED\X64-WINDOWS\LIB\LIBCRYPTO.LIB
C:\USERS\CAIYUJIN\DESKTOP\VCPKGINSTALLER\VCPKG\INSTALLED\X64-WINDOWS\LIB\LIBPROTOBUF-LITE.LIB
C:\USERS\CAIYUJIN\DESKTOP\VCPKGINSTALLER\VCPKG\INSTALLED\X64-WINDOWS\LIB\LIBPROTOBUF.LIB
C:\USERS\CAIYUJIN\DESKTOP\VCPKGINSTALLER\VCPKG\INSTALLED\X64-WINDOWS\LIB\LIBPROTOC.LIB
C:\USERS\CAIYUJIN\DESKTOP\VCPKGINSTALLER\VCPKG\INSTALLED\X64-WINDOWS\LIB\LIBSSL.LIB
C:\USERS\CAIYUJIN\DESKTOP\VCPKGINSTALLER\VCPKG\INSTALLED\X64-WINDOWS\LIB\RE2.LIB
C:\USERS\CAIYUJIN\DESKTOP\VCPKGINSTALLER\VCPKG\INSTALLED\X64-WINDOWS\LIB\UPB_BASE_LIB.LIB
C:\USERS\CAIYUJIN\DESKTOP\VCPKGINSTALLER\VCPKG\INSTALLED\X64-WINDOWS\LIB\UPB_JSON_LIB.LIB
C:\USERS\CAIYUJIN\DESKTOP\VCPKGINSTALLER\VCPKG\INSTALLED\X64-WINDOWS\LIB\UPB_MEM_LIB.LIB
C:\USERS\CAIYUJIN\DESKTOP\VCPKGINSTALLER\VCPKG\INSTALLED\X64-WINDOWS\LIB\UPB_MESSAGE_LIB.LIB
C:\USERS\CAIYUJIN\DESKTOP\VCPKGINSTALLER\VCPKG\INSTALLED\X64-WINDOWS\LIB\UPB_MINI_DESCRIPTOR_LIB.LIB
C:\USERS\CAIYUJIN\DESKTOP\VCPKGINSTALLER\VCPKG\INSTALLED\X64-WINDOWS\LIB\UPB_TEXTFORMAT_LIB.LIB
C:\USERS\CAIYUJIN\DESKTOP\VCPKGINSTALLER\VCPKG\INSTALLED\X64-WINDOWS\LIB\UPB_WIRE_LIB.LIB
C:\USERS\CAIYUJIN\DESKTOP\VCPKGINSTALLER\VCPKG\INSTALLED\X64-WINDOWS\LIB\UTF8_RANGE.LIB
C:\USERS\CAIYUJIN\DESKTOP\VCPKGINSTALLER\VCPKG\INSTALLED\X64-WINDOWS\LIB\UTF8_VALIDITY.LIB
C:\USERS\CAIYUJIN\DESKTOP\VCPKGINSTALLER\VCPKG\INSTALLED\X64-WINDOWS\LIB\ZLIB.LIB
C:\USERS\CAIYUJIN\DESKTOP\CPP\CPP_OTHERS\GRPC_EXAMPLE\CMAKEFILES\3.29.2\COMPILERIDCXX\DEBUG\CMAKECXXCOMPILERID.OBJ
C:\WINDOWS\GLOBALIZATION\SORTING\SORTDEFAULT.NLS
C:\PROGRAM FILES\MICROSOFT VISUAL STUDIO\2022\PROFESSIONAL\VC\TOOLS\MSVC\14.36.32532\LIB\X64\MSVCRTD.LIB
C:\PROGRAM FILES\MICROSOFT VISUAL STUDIO\2022\PROFESSIONAL\VC\TOOLS\MSVC\14.36.32532\LIB\X64\OLDNAMES.LIB
C:\PROGRAM FILES\MICROSOFT VISUAL STUDIO\2022\PROFESSIONAL\VC\TOOLS\MSVC\14.36.32532\LIB\X64\VCRUNTIMED.LIB
C:\PROGRAM FILES (X86)\WINDOWS KITS\10\LIB\10.0.22000.0\UCRT\X64\UCRTD.LIB
C:\PROGRAM FILES\MICROSOFT VISUAL STUDIO\2022\PROFESSIONAL\VC\TOOLS\MSVC\14.36.32532\BIN\HOSTX64\X64\CVTRES.EXE
C:\WINDOWS\SYSTEM32\TZRES.DLL
C:\PROGRAM FILES (X86)\WINDOWS KITS\10\BIN\10.0.22000.0\X64\RC.EXE
